{
    "extensionDescr": {
        "message": "Encuentra rápidamente Bases de Datos y Listas de emails de empresas para tu Email Marketing B2B"
    },
    "bmMsgTitle": {
        "message": "Notificación por Bancomail"
    },
    "bmMsgDescr": {
        "message": "¡Una o varias de las bases de datos que observas están descontadas!"
    },
    "bmMsgBtnLabel": {
        "message": "¡Descúbrelo ahora!"
    },
    "bmSyncBtnLabel": {
        "message": "Supervisa"
    },
    "bmSyncBtnLabel2": {
        "message": "Deja de monitorear"
    },
    "languageSelector": {
        "message": "Selecciona tu idioma preferido"
    },
    "saveOptionsBtn": {
        "message": "Guarda"
    },
    "saveOptionStatus": {
        "message": "¡Opción guardada!"
    },
    "controller": {
        "message": "bases-de-datos-de-emails"
    },
    "action": {
        "message": "cesta-compra"
    }
}
