{
    "extensionDescr": {
        "message": "Quickly find Business Email Lists for your B2B Email Marketing"
    },
    "bmMsgTitle": {
        "message": "Notification from Bancomail"
    },
    "bmMsgDescr": {
        "message": "Special Sale on some of the databases you are watching! Check now!"
    },
    "bmMsgBtnLabel": {
        "message": "Find out more!"
    },
    "bmSyncBtnLabel": {
        "message": "Start synching"
    },
    "bmSyncBtnLabel2": {
        "message": "Stop monitoring"
    },
    "languageSelector": {
        "message": "Select your preferred language"
    },
    "saveOptionsBtn": {
        "message": "Save"
    },
    "saveOptionStatus": {
        "message": "Option saved!"
    },
    "controller": {
        "message": "email-database"
    },
    "action": {
        "message": "shopping-cart"
    }
}
